[
	{
			"key": "ctrl+shift+t",
			"command": "workbench.action.terminal.toggleTerminal"
	},
	{
			"key": "ctrl+b",
			"command": "editor.action.commentLine",
			"when": "editorTextFocus && !editorReadonly"
	},
	{
			"key": "ctrl+shift+b",
			"command": "editor.action.blockComment",
			"when": "editorTextFocus && !editorReadonly"
	},
	{
			"key": "alt+l",
			"command": "editor.action.reindentlines"
	},
	{
			"key": "alt+j",
			"command": "editor.action.addSelectionToNextFindMatch",
			"when": "editorFocus"
	},
	{
			"key": "ctrl+k ctrl+b",
			"command": "workbench.action.toggleSidebarVisibility"
	}
]
